{
    "key": "group_59d2f8315cf01",
    "title": "Link",
    "fields": [
        {
            "key": "field_59d2f8318a47e",
            "label": "Type",
            "name": "link_type",
            "type": "select",
            "instructions": "",
            "required": 0,
            "conditional_logic": 0,
            "wrapper": {
                "width": "33.3333",
                "class": "",
                "id": ""
            },
            "choices": {
                "url": "URL",
                "media": "File \/ Media"
            },
            "default_value": [],
            "allow_null": 0,
            "multiple": 0,
            "ui": 0,
            "return_format": "value",
            "ajax": 0,
            "placeholder": ""
        },
        {
            "key": "field_5b80540b4868f",
            "label": "Link",
            "name": "link",
            "type": "link",
            "instructions": "",
            "required": 0,
            "conditional_logic": [
                [
                    {
                        "field": "field_59d2f8318a47e",
                        "operator": "==",
                        "value": "url"
                    }
                ]
            ],
            "wrapper": {
                "width": "66.6666",
                "class": "",
                "id": ""
            },
            "return_format": "array"
        },
        {
            "key": "field_59d2f8318a75a",
            "label": "File",
            "name": "link_file",
            "type": "file",
            "instructions": "",
            "required": 0,
            "conditional_logic": [
                [
                    {
                        "field": "field_59d2f8318a47e",
                        "operator": "==",
                        "value": "media"
                    }
                ]
            ],
            "wrapper": {
                "width": "66.6666",
                "class": "",
                "id": ""
            },
            "return_format": "array",
            "library": "all",
            "min_size": "",
            "max_size": "",
            "mime_types": ""
        }
    ],
    "location": [
        [
            {
                "param": "post_type",
                "operator": "==",
                "value": "page"
            }
        ]
    ],
    "menu_order": 0,
    "position": "normal",
    "style": "default",
    "label_placement": "top",
    "instruction_placement": "label",
    "hide_on_screen": "",
    "active": 0,
    "description": "",
    "modified": 1535138646
}